{
  "project_info": {
    "project_number": "1016021621457",
    "firebase_url": "https://standardapp-72664.firebaseio.com",
    "project_id": "standardapp-72664",
    "storage_bucket": "standardapp-72664.appspot.com"
  },
  "client": [
    {
      "client_info": {
        "mobilesdk_app_id": "1:1016021621457:android:e1868956367394b2",
        "android_client_info": {
          "package_name": "vn.com.engma.stdapp"
        }
      },
      "oauth_client": [
        {
          "client_id": "1016021621457-rntkrv6mqf673frum9teb5qa0mcta4an.apps.googleusercontent.com",
          "client_type": 1,
          "android_info": {
            "package_name": "vn.com.engma.stdapp",
            "certificate_hash": "d48fde25abed83bbf2734f1664dee13e2c9ce4e0"
          }
        },
        {
          "client_id": "1016021621457-ij07p9uu0fjbjkl89rjtjgqrf87q2muu.apps.googleusercontent.com",
          "client_type": 3
        }
      ],
      "api_key": [
        {
          "current_key": "AIzaSyCVr70lBWhIUc4PuXkgD43FW6NNfuJ5yXw"
        }
      ],
      "services": {
        "analytics_service": {
          "status": 1
        },
        "appinvite_service": {
          "status": 2,
          "other_platform_oauth_client": [
            {
              "client_id": "1016021621457-ij07p9uu0fjbjkl89rjtjgqrf87q2muu.apps.googleusercontent.com",
              "client_type": 3
            }
          ]
        },
        "ads_service": {
          "status": 2
        }
      }
    }
  ],
  "configuration_version": "1"
}